{"properties": [
  {
    "name": "variables.aws-bucket.name",
    "type": "java.lang.String",
    "description": "A description for 'variables.aws-bucket.name'"
  },
  {
    "name": "variables.aws-credentials.ACCESS_-kEY",
    "type": "java.lang.String",
    "description": "A description for 'variables.aws-credentials.ACCESS_-kEY'"
  },
  {
    "name": "variables.aws-credentials.SECRET_KEY",
    "type": "java.lang.String",
    "description": "A description for 'variables.aws-credentials.SECRET_KEY'"
  },
  {
    "name": "conf.log.long-line",
    "type": "java.lang.String",
    "description": "A description for 'conf.log.long-line'"
  }
]}